{
    "configurations": [
        {
            "name": "STM32L051xx",
            "includePath": [
                "${workspaceFolder}/Inc",
                "${workspaceFolder}/Drivers/STM32L0xx_HAL_Driver/Inc",
                "${workspaceFolder}/Drivers/STM32L0xx_HAL_Driver/Inc/Legacy",
                "${workspaceFolder}/Drivers/CMSIS/Device/ST/STM32L0xx/Include",
                "${workspaceFolder}/Drivers/CMSIS/Include",
                "${workspaceFolder}/Middlewares/Third_Party/FreeRTOS/Source/include",
                "${workspaceFolder}/Middlewares/Third_Party/FreeRTOS/Source/CMSIS_RTOS",
                "${workspaceFolder}/Middlewares/Third_Party/FreeRTOS/Source/portable/GCC/ARM_CM0"
            ],
            "defines": [
                "STM32L051xx",
                "USE_HAL_DRIVER"
            ],
            "compilerPath": "/usr/bin/arm-none-eabi-gcc",
            "cStandard": "c11",
            "cppStandard": "c++17",
            "intelliSenseMode": "gcc-x64"
        }
    ],
    "version": 4
}
